{
  "offset": 0,
  "limit": 20,
  "total": 21,
  "hasNext": true,
  "content": [
    {
      "id": 1080610,
      "codigo": 3158,
      "nome": "-",
      "municipio": {
        "id": 1347,
        "nome": "Cornélio Procópio",
        "estado": {
          "id": 14,
          "nome": "Paraná",
          "uf": "PR",
          "codigoIbge": 41,
          "pais": {
            "id": 29,
            "nome": "Brasil",
            "sigla2C": "BR",
            "sigla3C": "BRA",
            "sigla3D": "076",
            "codigoBacen": "1058"
          }
        },
        "codigoIBGE": 4106407,
        "codigoSIAFI": 987525
      },
      "zonaRural": {
        "valor": "NAO",
        "descricao": "Não"
      },
      "bairrosAtos": [],
      "bairroMovimentacoes": []
    },
    {
      "id": 1081577,
      "codigo": 3954,
      "nome": "-",
      "municipio": {
        "id": 2732,
        "nome": "Leópolis",
        "estado": {
          "id": 14,
          "nome": "Paraná",
          "uf": "PR",
          "codigoIbge": 41,
          "pais": {
            "id": 29,
            "nome": "Brasil",
            "sigla2C": "BR",
            "sigla3C": "BRA",
            "sigla3D": "076",
            "codigoBacen": "1058"
          }
        },
        "codigoIBGE": 4113403,
        "codigoSIAFI": 987661
      },
      "zonaRural": {
        "valor": "NAO",
        "descricao": "Não"
      },
      "bairrosAtos": [],
      "bairroMovimentacoes": []
    },
    {
      "id": 1539588,
      "codigo": 4090,
      "nome": "-",
      "municipio": {
        "id": 289,
        "nome": "Arapongas",
        "estado": {
          "id": 14,
          "nome": "Paraná",
          "uf": "PR",
          "codigoIbge": 41,
          "pais": {
            "id": 29,
            "nome": "Brasil",
            "sigla2C": "BR",
            "sigla3C": "BRA",
            "sigla3D": "076",
            "codigoBacen": "1058"
          }
        },
        "codigoIBGE": 4101507,
        "codigoSIAFI": 987427
      },
      "zonaRural": {
        "valor": "NAO",
        "descricao": "Não"
      },
      "bairrosAtos": [],
      "bairroMovimentacoes": []
    },
    {
      "id": 1076987,
      "codigo": 2409,
      "nome": "********",
      "municipio": {
        "id": 1347,
        "nome": "Cornélio Procópio",
        "estado": {
          "id": 14,
          "nome": "Paraná",
          "uf": "PR",
          "codigoIbge": 41,
          "pais": {
            "id": 29,
            "nome": "Brasil",
            "sigla2C": "BR",
            "sigla3C": "BRA",
            "sigla3D": "076",
            "codigoBacen": "1058"
          }
        },
        "codigoIBGE": 4106407,
        "codigoSIAFI": 987525
      },
      "zonaRural": {
        "valor": "NAO",
        "descricao": "Não"
      },
      "bairrosAtos": [],
      "bairroMovimentacoes": []
    },
    {
      "id": 3279059,
      "codigo": 4673,
      "nome": "130",
      "municipio": {
        "id": 3802,
        "nome": "Pirapora do Bom Jesus",
        "estado": {
          "id": 26,
          "nome": "São Paulo",
          "uf": "SP",
          "codigoIbge": 35,
          "pais": {
            "id": 29,
            "nome": "Brasil",
            "sigla2C": "BR",
            "sigla3C": "BRA",
            "sigla3D": "076",
            "codigoBacen": "1058"
          }
        },
        "codigoIBGE": 3539103,
        "codigoSIAFI": 986883
      },
      "zonaRural": {
        "valor": "NAO",
        "descricao": "Não"
      },
      "bairrosAtos": [],
      "bairroMovimentacoes": []
    },
    {
      "id": 948287,
      "codigo": 719,
      "nome": "138",
      "municipio": {
        "id": 1347,
        "nome": "Cornélio Procópio",
        "estado": {
          "id": 14,
          "nome": "Paraná",
          "uf": "PR",
          "codigoIbge": 41,
          "pais": {
            "id": 29,
            "nome": "Brasil",
            "sigla2C": "BR",
            "sigla3C": "BRA",
            "sigla3D": "076",
            "codigoBacen": "1058"
          }
        },
        "codigoIBGE": 4106407,
        "codigoSIAFI": 987525
      },
      "zonaRural": null,
      "bairrosAtos": [],
      "bairroMovimentacoes": []
    },
    {
      "id": 1910627,
      "codigo": 4181,
      "nome": "15 DE NOVEMBRO",
      "municipio": {
        "id": 655,
        "nome": "Bom Jesus do Oeste",
        "estado": {
          "id": 24,
          "nome": "Santa Catarina",
          "uf": "SC",
          "codigoIbge": 42,
          "pais": {
            "id": 29,
            "nome": "Brasil",
            "sigla2C": "BR",
            "sigla3C": "BRA",
            "sigla3D": "076",
            "codigoBacen": "1058"
          }
        },
        "codigoIBGE": 4202578,
        "codigoSIAFI": 980902
      },
      "zonaRural": {
        "valor": "NAO",
        "descricao": "Não"
      },
      "bairrosAtos": [],
      "bairroMovimentacoes": []
    },
    {
      "id": 948565,
      "codigo": 720,
      "nome": "200",
      "municipio": {
        "id": 1347,
        "nome": "Cornélio Procópio",
        "estado": {
          "id": 14,
          "nome": "Paraná",
          "uf": "PR",
          "codigoIbge": 41,
          "pais": {
            "id": 29,
            "nome": "Brasil",
            "sigla2C": "BR",
            "sigla3C": "BRA",
            "sigla3D": "076",
            "codigoBacen": "1058"
          }
        },
        "codigoIBGE": 4106407,
        "codigoSIAFI": 987525
      },
      "zonaRural": null,
      "bairrosAtos": [],
      "bairroMovimentacoes": []
    },
    {
      "id": 2644059,
      "codigo": 4321,
      "nome": "229",
      "municipio": {
        "id": 2439,
        "nome": "Jacarezinho",
        "estado": {
          "id": 14,
          "nome": "Paraná",
          "uf": "PR",
          "codigoIbge": 41,
          "pais": {
            "id": 29,
            "nome": "Brasil",
            "sigla2C": "BR",
            "sigla3C": "BRA",
            "sigla3D": "076",
            "codigoBacen": "1058"
          }
        },
        "codigoIBGE": 4111803,
        "codigoSIAFI": 987629
      },
      "zonaRural": {
        "valor": "NAO",
        "descricao": "Não"
      },
      "bairrosAtos": [],
      "bairroMovimentacoes": []
    },
    {
      "id": 948754,
      "codigo": 721,
      "nome": "247",
      "municipio": {
        "id": 1347,
        "nome": "Cornélio Procópio",
        "estado": {
          "id": 14,
          "nome": "Paraná",
          "uf": "PR",
          "codigoIbge": 41,
          "pais": {
            "id": 29,
            "nome": "Brasil",
            "sigla2C": "BR",
            "sigla3C": "BRA",
            "sigla3D": "076",
            "codigoBacen": "1058"
          }
        },
        "codigoIBGE": 4106407,
        "codigoSIAFI": 987525
      },
      "zonaRural": null,
      "bairrosAtos": [],
      "bairroMovimentacoes": []
    },
    {
      "id": 5137939,
      "codigo": 36014,
      "nome": "29 DE JULHO",
      "municipio": {
        "id": 3541,
        "nome": "Paranaguá",
        "estado": {
          "id": 14,
          "nome": "Paraná",
          "uf": "PR",
          "codigoIbge": 41,
          "pais": {
            "id": 29,
            "nome": "Brasil",
            "sigla2C": "BR",
            "sigla3C": "BRA",
            "sigla3D": "076",
            "codigoBacen": "1058"
          }
        },
        "codigoIBGE": 4118204,
        "codigoSIAFI": 987745
      },
      "zonaRural": {
        "valor": "NAO",
        "descricao": "Não"
      },
      "bairrosAtos": [],
      "bairroMovimentacoes": []
    },
    {
      "id": 948566,
      "codigo": 722,
      "nome": "333",
      "municipio": {
        "id": 2758,
        "nome": "Londrina",
        "estado": {
          "id": 14,
          "nome": "Paraná",
          "uf": "PR",
          "codigoIbge": 41,
          "pais": {
            "id": 29,
            "nome": "Brasil",
            "sigla2C": "BR",
            "sigla3C": "BRA",
            "sigla3D": "076",
            "codigoBacen": "1058"
          }
        },
        "codigoIBGE": 4113700,
        "codigoSIAFI": 987667
      },
      "zonaRural": null,
      "bairrosAtos": [],
      "bairroMovimentacoes": []
    },
    {
      "id": 1744447,
      "codigo": 4157,
      "nome": "3O DISTRITO INDUSTRIAL (VIRGILIO OMETTO PAVAN)",
      "municipio": {
        "id": 298,
        "nome": "Araraquara",
        "estado": {
          "id": 26,
          "nome": "São Paulo",
          "uf": "SP",
          "codigoIbge": 35,
          "pais": {
            "id": 29,
            "nome": "Brasil",
            "sigla2C": "BR",
            "sigla3C": "BRA",
            "sigla3D": "076",
            "codigoBacen": "1058"
          }
        },
        "codigoIBGE": 3503208,
        "codigoSIAFI": 986163
      },
      "zonaRural": {
        "valor": "NAO",
        "descricao": "Não"
      },
      "bairrosAtos": [],
      "bairroMovimentacoes": []
    },
    {
      "id": 948730,
      "codigo": 723,
      "nome": "43",
      "municipio": {
        "id": 1347,
        "nome": "Cornélio Procópio",
        "estado": {
          "id": 14,
          "nome": "Paraná",
          "uf": "PR",
          "codigoIbge": 41,
          "pais": {
            "id": 29,
            "nome": "Brasil",
            "sigla2C": "BR",
            "sigla3C": "BRA",
            "sigla3D": "076",
            "codigoBacen": "1058"
          }
        },
        "codigoIBGE": 4106407,
        "codigoSIAFI": 987525
      },
      "zonaRural": null,
      "bairrosAtos": [],
      "bairroMovimentacoes": []
    },
    {
      "id": 2939019,
      "codigo": 4571,
      "nome": "91",
      "municipio": {
        "id": 1347,
        "nome": "Cornélio Procópio",
        "estado": {
          "id": 14,
          "nome": "Paraná",
          "uf": "PR",
          "codigoIbge": 41,
          "pais": {
            "id": 29,
            "nome": "Brasil",
            "sigla2C": "BR",
            "sigla3C": "BRA",
            "sigla3D": "076",
            "codigoBacen": "1058"
          }
        },
        "codigoIBGE": 4106407,
        "codigoSIAFI": 987525
      },
      "zonaRural": {
        "valor": "NAO",
        "descricao": "Não"
      },
      "bairrosAtos": [],
      "bairroMovimentacoes": []
    },
    {
      "id": 1080703,
      "codigo": 3262,
      "nome": "ACADEMIA",
      "municipio": {
        "id": 4884,
        "nome": "São José dos Pinhais",
        "estado": {
          "id": 14,
          "nome": "Paraná",
          "uf": "PR",
          "codigoIbge": 41,
          "pais": {
            "id": 29,
            "nome": "Brasil",
            "sigla2C": "BR",
            "sigla3C": "BRA",
            "sigla3D": "076",
            "codigoBacen": "1058"
          }
        },
        "codigoIBGE": 4125506,
        "codigoSIAFI": 987885
      },
      "zonaRural": {
        "valor": "NAO",
        "descricao": "Não"
      },
      "bairrosAtos": [],
      "bairroMovimentacoes": []
    },
    {
      "id": 2444062,
      "codigo": null,
      "nome": "Aclimação",
      "municipio": {
        "id": 5320,
        "nome": "Uberlândia",
        "estado": {
          "id": 13,
          "nome": "Minas Gerais",
          "uf": "MG",
          "codigoIbge": 31,
          "pais": {
            "id": 29,
            "nome": "Brasil",
            "sigla2C": "BR",
            "sigla3C": "BRA",
            "sigla3D": "076",
            "codigoBacen": "1058"
          }
        },
        "codigoIBGE": 3170206,
        "codigoSIAFI": 985403
      },
      "zonaRural": {
        "valor": "NAO",
        "descricao": "Não"
      },
      "bairrosAtos": [],
      "bairroMovimentacoes": []
    },
    {
      "id": 1080927,
      "codigo": 3447,
      "nome": "ACLIMAÇÃO",
      "municipio": {
        "id": 4991,
        "nome": "São Paulo",
        "estado": {
          "id": 26,
          "nome": "São Paulo",
          "uf": "SP",
          "codigoIbge": 35,
          "pais": {
            "id": 29,
            "nome": "Brasil",
            "sigla2C": "BR",
            "sigla3C": "BRA",
            "sigla3D": "076",
            "codigoBacen": "1058"
          }
        },
        "codigoIBGE": 3550308,
        "codigoSIAFI": 987107
      },
      "zonaRural": {
        "valor": "NAO",
        "descricao": "Não"
      },
      "bairrosAtos": [],
      "bairroMovimentacoes": []
    },
    {
      "id": 1080900,
      "codigo": 3459,
      "nome": "ADRIANO CORREIA",
      "municipio": {
        "id": 250,
        "nome": "Apucarana",
        "estado": {
          "id": 14,
          "nome": "Paraná",
          "uf": "PR",
          "codigoIbge": 41,
          "pais": {
            "id": 29,
            "nome": "Brasil",
            "sigla2C": "BR",
            "sigla3C": "BRA",
            "sigla3D": "076",
            "codigoBacen": "1058"
          }
        },
        "codigoIBGE": 4101408,
        "codigoSIAFI": 987425
      },
      "zonaRural": {
        "valor": "NAO",
        "descricao": "Não"
      },
      "bairrosAtos": [],
      "bairroMovimentacoes": []
    },
    {
      "id": 1367829,
      "codigo": null,
      "nome": "AEROPORTO",
      "municipio": {
        "id": 2439,
        "nome": "Jacarezinho",
        "estado": {
          "id": 14,
          "nome": "Paraná",
          "uf": "PR",
          "codigoIbge": 41,
          "pais": {
            "id": 29,
            "nome": "Brasil",
            "sigla2C": "BR",
            "sigla3C": "BRA",
            "sigla3D": "076",
            "codigoBacen": "1058"
          }
        },
        "codigoIBGE": 4111803,
        "codigoSIAFI": 987629
      },
      "zonaRural": null,
      "bairrosAtos": [],
      "bairroMovimentacoes": []
    }
  ]
}